…
```{r }
yr_data_long <- pivot_longer(yr_data,
                            cols = paste(2001:2020),
                            names_to = "year",
                            values_to = "points")
```

4. View the `tbi_age` data and decide what format it's in. Justify your answer.

[LONG.]

5. Transform this data so that we can see `number_est` for each age group along with `type` and `injury_mechanism`, like below. Save this data frame as `tbi_wide`. 

```{}
## # A tibble: 21 x 13
##    type  injury_mechanism  0-17   0-4<code>   5-14</code>   15-24   25-34   35-44   45-54
##    <chr> <chr>             <dbl>  <dbl>  <dbl>   <dbl>   <dbl>   <dbl>   <dbl>
##  1 Emer~ Motor Vehicle C~  47138   5464  19785  103892   71641   44108   40020
##  2 Emer~ Unintentional F~ 397190 230776 133084   96568   70210   68830   95127
##  3 Emer~ Unintentionally~ 229236  53436 120839  106679   44404   32479   30495
##  4 Emer~ Other unintenti~  55785  12007  30656   37118   22360   17541   17808
##  5 Emer~ Intentional sel~     NA     NA     NA     870     650     421     247
##  6 Emer~ Assault           24360    674   9690   65399   57213   34100   27682
##  7 Emer~ Other or no mec~  57983  19360  26022   33395   20974   16503   15962
##  8 Hosp~ Motor Vehicle C~   5830    870   2395   12925   11050    7305    8490
##  9 Hosp~ Unintentional F~   7935   4700   2270    3910    4470    5640   12010
## 10 Hosp~ Unintentionally~   1985    510    980    1070     635     610     685
## # ... with 11 more rows, and 4 more variables
```
…
