Chapter 14 Final Review | Introduction to R
…
yr_data_long = yr_data |> pivot_longer(cols = paste(2001:2020), 
                                       names_to = "year", 
                                       values_to = "points")
yr_data_long

## # A tibble: 400 × 3
##       id year  points
##    <int> <chr>  <int>
##  1     1 2001      59
##  2     1 2002      30
##  3     1 2003      52
##  4     1 2004      30
##  5     1 2005      73
##  6     1 2006       9
##  7     1 2007      56
##  8     1 2008      62
##  9     1 2009      71
## 10     1 2010      42
## # ℹ 390 more rows
…
