Chapter 12 Final Review | Introduction to R
…
yr_data_long = yr_data |> pivot_longer(cols = paste(2001:2020), 
                                       names_to = "year", 
                                       values_to = "points")
yr_data_long

## # A tibble: 400 × 3
##       id year  points
##    <int> <chr>  <int>
##  1     1 2001      54
##  2     1 2002       6
##  3     1 2003      77
##  4     1 2004      30
##  5     1 2005     100
##  6     1 2006      22
##  7     1 2007      47
##  8     1 2008      78
##  9     1 2009      84
## 10     1 2010      61
## # ℹ 390 more rows
…
