Chapter 6 Recitation 6 | Introduction to R
…
bnb_data <- bnb_data %>% 
  mutate(minimum_nights = as_factor(minimum_nights))

Group by room type and count the number of Airbnbs in each level of minimum_nights.

bnb_data %>% 
  group_by(room_type) %>% 
  select(minimum_nights) %>% 
  count(minimum_nights)

## # A tibble: 125 × 3
## # Groups:   room_type [3]
##    room_type       minimum_nights     n
##    <chr>           <fct>          <int>
##  1 Entire home/apt 1               4926
##  2 Entire home/apt 2               5343
##  3 Entire home/apt 3               4063
##  4 Entire home/apt 4               1509
##  5 Entire home/apt 5               1400
##  6 Entire home/apt 6                344
##  7 Entire home/apt 7                894
##  8 Entire home/apt 8                 54
##  9 Entire home/apt 9                 24
## 10 Entire home/apt 10               172
## # ℹ 115 more rows

bnb_data |>
  group_by(room_type, minimum_nights) |>
  summarise(
    count = n()
  )

## # A tibble: 125 × 3
## # Groups:   room_type [3]
##    room_type       minimum_nights count
##    <chr>           <fct>          <int>
##  1 Entire home/apt 1               4926
##  2 Entire home/apt 2               5343
##  3 Entire home/apt 3               4063
##  4 Entire home/apt 4               1509
##  5 Entire home/apt 5               1400
##  6 Entire home/apt 6                344
##  7 Entire home/apt 7                894
##  8 Entire home/apt 8                 54
##  9 Entire home/apt 9                 24
## 10 Entire home/apt 10               172
## # ℹ 115 more rows
…
