Chapter 4 Recitation 4 | Introduction to R
…
Create one year column and put all data currently stored in columns 2001 to 2020 into a column called points. Save this updated data frame as yr_data_long.

yr_data_long <- pivot_longer(yr_data,
                            cols = paste(2001:2020),
                            names_to = "year",
                            values_to = "points")

View the tbi_age data and decide what format it’s in. Justify your answer.

[LONG.]

Transform this data so that we can see number_est for each age group along with type and injury_mechanism, like below. Save this data frame as tbi_wide.

## # A tibble: 21 x 13
##    type  injury_mechanism  0-17   0-4<code>   5-14</code>   15-24   25-34   35-44   45-54
##    <chr> <chr>             <dbl>  <dbl>  <dbl>   <dbl>   <dbl>   <dbl>   <dbl>
##  1 Emer~ Motor Vehicle C~  47138   5464  19785  103892   71641   44108   40020
##  2 Emer~ Unintentional F~ 397190 230776 133084   96568   70210   68830   95127
##  3 Emer~ Unintentionally~ 229236  53436 120839  106679   44404   32479   30495
##  4 Emer~ Other unintenti~  55785  12007  30656   37118   22360   17541   17808
##  5 Emer~ Intentional sel~     NA     NA     NA     870     650     421     247
##  6 Emer~ Assault           24360    674   9690   65399   57213   34100   27682
##  7 Emer~ Other or no mec~  57983  19360  26022   33395   20974   16503   15962
##  8 Hosp~ Motor Vehicle C~   5830    870   2395   12925   11050    7305    8490
##  9 Hosp~ Unintentional F~   7935   4700   2270    3910    4470    5640   12010
## 10 Hosp~ Unintentionally~   1985    510    980    1070     635     610     685
## # ... with 11 more rows, and 4 more variables

tbi_wide <- tbi_age %>% 
  pivot_wider(
    id_cols = c(1, 2), 
    names_from = age_group,
    values_from = number_est)
tbi_wide

## # A tibble: 21 × 13
##    type   injury_mechanism `0-17`  `0-4` `5-14` `15-24` `25-34` `35-44` `45-54` `55-64`
##    <chr>  <chr>             <dbl>  <dbl>  <dbl>   <dbl>   <dbl>   <dbl>   <dbl>   <dbl>
##  1 Emerg… Motor Vehicle C…  47138   5464  19785  103892   71641   44108   40020   27193
##  2 Emerg… Unintentional F… 397190 230776 133084   96568   70210   68830   95127  112460
##  3 Emerg… Unintentionally… 229236  53436 120839  106679   44404   32479   30495   20408
##  4 Emerg… Other unintenti…  55785  12007  30656   37118   22360   17541   17808   12928
##  5 Emerg… Intentional sel…     NA     NA     NA     870     650     421     247     105
##  6 Emerg… Assault           24360    674   9690   65399   57213   34100   27682   11538
##  7 Emerg… Other or no mec…  57983  19360  26022   33395   20974   16503   15962   13387
##  8 Hospi… Motor Vehicle C…   5830    870   2395   12925   11050    7305    8490    7280
##  9 Hospi… Unintentional F…   7935   4700   2270    3910    4470    5640   12010   18490
## 10 Hospi… Unintentionally…   1985    510    980    1070     635     610     685     765
## # ℹ 11 more rows
## # ℹ 3 more variables: `65-74` <dbl>, `75+` <dbl>, Total <dbl>
…
Clean the tbi data so that it contains the following age groups: 0-4, 5-17, 18-24, 25-34, 35-44, 45-54, 55-64, 65-74, 75+, and Total. Keep the data in wide format. Save your new data frame as tbi_clean.

tbi_clean <- tbi_wide %>% 
  mutate(`5-17` = `0-17` - `0-4`,
         `18-24` = Total - (`0-17` + `25-34` + `35-44` + 
                              `45-54` + `55-64` + `65-74` + `75+`) 
  ) %>% 
  select(c(type, injury_mechanism, `0-4`, `5-17`, `18-24`, `25-34`:Total))

# Check that the categories sum to the total
tbi_clean %>% 
  mutate(Total2 = rowSums(across(`0-4`:`75+`), na.rm = T)) %>% 
  select(Total, Total2)

## # A tibble: 21 × 2
##      Total  Total2
##      <dbl>   <dbl>
##  1  334109  334109
##  2 1213412 1213412
##  3  433947  433947
##  4  164935  164935
##  5    2567    1423
##  6  210450  210450
##  7  172974  172974
##  8   58765   58765
##  9  150730  150730
## 10    7090    7090
## # ℹ 11 more rows
…
