Chapter 3 Recitation 3 | Introduction to R
…
Remove the first column using one of the functions from class. Make sure this column is gone when you view the data frame.

dat_diamond <- dat_diamond %>% select(-1)

dat_diamond <- dat_diamond %>% select(carat:z)

Find three unique ways to select the carat column (do not save the column to the environment).

# Method 1
dat_diamond %>% select("carat")

## # A tibble: 53,940 × 1
##    carat
##    <dbl>
##  1  0.23
##  2  0.21
##  3  0.23
##  4  0.29
##  5  0.31
##  6  0.24
##  7  0.24
##  8  0.26
##  9  0.22
## 10  0.23
## # ℹ 53,930 more rows

# Method 2
dat_diamond %>% select(carat)

## # A tibble: 53,940 × 1
##    carat
##    <dbl>
##  1  0.23
##  2  0.21
##  3  0.23
##  4  0.29
##  5  0.31
##  6  0.24
##  7  0.24
##  8  0.26
##  9  0.22
## 10  0.23
## # ℹ 53,930 more rows

# Method 3
dat_diamond %>% select(1)

## # A tibble: 53,940 × 1
##    carat
##    <dbl>
##  1  0.23
##  2  0.21
##  3  0.23
##  4  0.29
##  5  0.31
##  6  0.24
##  7  0.24
##  8  0.26
##  9  0.22
## 10  0.23
## # ℹ 53,930 more rows

# Method 4
dat_diamond[, 1]

## # A tibble: 53,940 × 1
##    carat
##    <dbl>
##  1  0.23
##  2  0.21
##  3  0.23
##  4  0.29
##  5  0.31
##  6  0.24
##  7  0.24
##  8  0.26
##  9  0.22
## 10  0.23
## # ℹ 53,930 more rows
…
